<?xml version="1.0" encoding="utf-8"?>
<!-- Generator: Adobe Illustrator 17.1.0, SVG Export Plug-In . SVG Version: 6.00 Build 0)  -->
<!DOCTYPE svg PUBLIC "-//W3C//DTD SVG 1.1//EN" "http://www.w3.org/Graphics/SVG/1.1/DTD/svg11.dtd">
<svg version="1.1" id="Layer_1" xmlns="http://www.w3.org/2000/svg" xmlns:xlink="http://www.w3.org/1999/xlink" x="0px" y="0px"
	 viewBox="0 0 366.7 75.4" enable-background="new 0 0 366.7 75.4" xml:space="preserve">
<g>
	<path fill="#B6A9D3" d="M113.2,44.6H109l-4.1-18H99l-3.2,18h-2.6l7.4-40.4h3.5L113.2,44.6z M104.4,24.5l-2.8-12.3l-2.3,12.3H104.4z
		 M135.5,13.8c0,3.9-1.7,6.8-5,8.8c1.4,0.5,2.4,1.1,2.8,2c0.3,0.6,0.5,1.8,0.5,3.5v12.7c0,0.4,0.1,0.8,0.2,1.3
		c0.1,0.4,0.4,1.2,0.9,2.5h-4.5c-0.5-1-0.8-1.8-0.9-2.3c-0.1-0.7-0.2-1.9-0.2-3.6V28c0-1.6-0.3-2.7-0.8-3.2
		c-0.5-0.5-1.6-0.7-3.4-0.7h-3.4v20.5h-4.2V4.2h5.3c3.4,0,6,0.4,7.8,1.2C133.9,6.9,135.5,9.7,135.5,13.8 M130.5,14.8
		c0-5.6-2.6-8.4-7.8-8.4h-1V22h3.3C128.7,22,130.5,19.6,130.5,14.8 M145.3,44.6h-4.1V4.2h4.1V44.6z M170.2,44.6h-4.2l-4.1-18h-5.9
		l-3.2,18h-2.6l7.4-40.4h3.5L170.2,44.6z M161.4,24.5l-2.8-12.3l-2.3,12.3H161.4z M190.7,44.6H188l-11-31.5v31.5h-2.5V4.2h3.6
		l10.1,28.9V4.2h2.5V44.6z M214.7,44.6h-4.2l-4.1-18h-5.9l-3.2,18h-2.6L202,4.2h3.5L214.7,44.6z M205.9,24.5l-2.8-12.3l-2.3,12.3
		H205.9z M278.9,13.8c0,3.9-1.7,6.8-5,8.8c1.4,0.5,2.4,1.1,2.8,2c0.3,0.6,0.5,1.8,0.5,3.5v12.7c0,0.4,0.1,0.8,0.2,1.3
		c0.1,0.4,0.4,1.2,0.9,2.5h-4.5c-0.5-1-0.8-1.8-0.9-2.3c-0.1-0.7-0.2-1.9-0.2-3.6V28c0-1.6-0.3-2.7-0.8-3.2
		c-0.5-0.5-1.6-0.7-3.4-0.7h-3.4v20.5H261V4.2h5.3c3.4,0,6,0.4,7.8,1.2C277.3,6.9,278.9,9.7,278.9,13.8 M273.9,14.8
		c0-5.6-2.6-8.4-7.8-8.4h-1V22h3.3C272.1,22,273.9,19.6,273.9,14.8 M347.8,24.7c0,6.3-1.5,11.3-4.6,15.1c-1.7,2.1-3.7,3.5-6,4.2
		c-1.2,0.4-3,0.6-5.4,0.6h-3.4V4.2h3.2c4.7,0,8.3,1.5,11,4.5C346.1,12.8,347.8,18.1,347.8,24.7 M343,24.2c0-4.7-0.8-8.9-2.5-12.4
		c-1.5-3.2-4.2-5-8-5.4v36.1h0.4c2.5,0,4.6-0.8,6.1-2.5c1.7-1.9,2.9-5,3.6-9.4C342.8,28.4,343,26.2,343,24.2 M364.4,44.6h-12.3V4.2
		h11v2.2h-6.8v14.9h5.2v2.1h-5.2v19.1h8.1V44.6z M251,21.8h-5.2v2.1h5.2V36c-0.3,2.1-1.1,3.7-2.4,5c-1.3,1.2-3,1.8-5,1.8
		c-3.1,0-5.6-1.7-7.5-5.2c-2-3.5-2.9-7.9-2.9-13.3c0-5.4,1-9.8,2.9-13.1c1.9-3.4,4.5-5.1,7.6-5.1c4.4,0,7.3,2.8,8.7,8.5l0.1,0.2
		l2.8-1.6c-1.2-2.7-2.3-4.7-3.3-5.8c-2.1-2.4-4.9-3.6-8.3-3.6c-4.3,0-7.9,2-10.8,6c-2.9,4-4.4,8.9-4.4,14.8c0,5.8,1.4,10.7,4.2,14.7
		c2.8,3.9,6.3,5.9,10.5,5.9c3.3,0,6.1-1.1,8.4-3.3c2.2-2.2,3.4-4.9,3.4-8.2V21.8L251,21.8L251,21.8z M70.7,21.7
		c0-0.1,0.1-0.2,0.2-0.2h2.4c1.4,0,2.3,0.9,2.3,2.1c0,0.9-0.6,1.5-1.1,1.8c0.6,0.2,1.3,0.8,1.3,1.8c0,1.3-1,2.2-2.4,2.2h-2.5
		c-0.1,0-0.2-0.1-0.2-0.2V21.7z M73.5,28.5c0.8,0,1.4-0.6,1.4-1.4c0-0.8-0.7-1.4-1.6-1.4h-1.8v2.8H73.5z M73.3,25
		c0.9,0,1.3-0.6,1.3-1.4c0-0.8-0.5-1.3-1.3-1.3h-1.8V25H73.3z M80.4,25.5l-2.7-3.7c-0.1-0.1,0-0.3,0.2-0.3h0.5
		c0.1,0,0.1,0.1,0.2,0.1l2.2,3.1l2.3-3.1c0,0,0.1-0.1,0.2-0.1h0.5c0.2,0,0.3,0.2,0.2,0.3l-2.7,3.7v3.6c0,0.1-0.1,0.2-0.2,0.2h-0.4
		c-0.1,0-0.2-0.1-0.2-0.2V25.5z M23.9,44.6h-4.2l-4.1-18H9.6l-3.2,18H3.8l7.4-40.4h3.5L23.9,44.6z M15.1,24.5l-2.8-12.3L10,24.5
		H15.1z M46.2,13.8c0,3.9-1.7,6.8-5,8.8c1.4,0.5,2.4,1.1,2.8,2c0.3,0.6,0.5,1.8,0.5,3.5v12.7c0,0.4,0.1,0.8,0.2,1.3
		c0.1,0.4,0.4,1.2,0.9,2.5H41c-0.5-1-0.8-1.8-0.9-2.3C40,41.6,40,40.4,40,38.8V28c0-1.6-0.3-2.7-0.8-3.2c-0.5-0.5-1.6-0.7-3.4-0.7
		h-3.4v20.5h-4.1V4.2h5.3c3.4,0,6,0.4,7.8,1.2C44.5,6.9,46.2,9.7,46.2,13.8 M41.2,14.8c0-5.6-2.6-8.4-7.8-8.4h-1V22h3.3
		C39.3,22,41.2,19.6,41.2,14.8 M56,44.6h-4.1V4.2H56V44.6z M302.3,44.6h-4.2l-4.1-18h-5.9l-3.2,18h-2.6l7.4-40.4h3.5L302.3,44.6z
		 M293.5,24.5l-2.8-12.3l-2.3,12.3H293.5z M322.8,44.6h-2.7l-11-31.5v31.5h-2.5V4.2h3.6l10.1,28.9V4.2h2.5V44.6z"/>
	<path fill="#B6A9D3" d="M93.8,71.8h-0.5c-0.1,0-0.3-0.1-0.3-0.3v-8.7h-2.5c-0.2,0-0.3-0.1-0.3-0.3v-0.4c0-0.1,0.1-0.3,0.3-0.3h6
		c0.2,0,0.3,0.1,0.3,0.3v0.4c0,0.1-0.1,0.3-0.3,0.3h-2.5v8.7C94.1,71.7,94,71.8,93.8,71.8"/>
	<path fill="#B6A9D3" d="M107.5,71.8H107c-0.2,0-0.3-0.1-0.3-0.3v-4.3h-5.8v4.3c0,0.1-0.1,0.3-0.3,0.3h-0.6c-0.1,0-0.3-0.1-0.3-0.3
		v-9.4c0-0.1,0.1-0.3,0.3-0.3h0.6c0.2,0,0.3,0.1,0.3,0.3v4.2h5.8v-4.2c0-0.1,0.1-0.3,0.3-0.3h0.6c0.1,0,0.3,0.1,0.3,0.3v9.4
		C107.8,71.7,107.7,71.8,107.5,71.8"/>
	<path fill="#B6A9D3" d="M118,71.8h-5.6c-0.2,0-0.3-0.1-0.3-0.3v-9.4c0-0.1,0.1-0.3,0.3-0.3h5.6c0.2,0,0.3,0.1,0.3,0.3v0.4
		c0,0.1-0.1,0.3-0.3,0.3h-4.8v3.5h4.1c0.1,0,0.3,0.1,0.3,0.3V67c0,0.2-0.1,0.3-0.3,0.3h-4.1v3.6h4.8c0.2,0,0.3,0.1,0.3,0.3v0.4
		C118.3,71.7,118.2,71.8,118,71.8"/>
	<path fill="#B6A9D3" d="M127.6,62.8v8h2.1c2.3,0,4-1.7,4-4c0-2.3-1.7-4-4-4H127.6 M130,71.8h-3.2c-0.1,0-0.3-0.1-0.3-0.3v-9.4
		c0-0.1,0.1-0.3,0.3-0.3h3.2c2.8,0,5,2.2,5,5C135,69.6,132.8,71.8,130,71.8"/>
	<path fill="#B6A9D3" d="M144.5,71.8h-5.6c-0.2,0-0.3-0.1-0.3-0.3v-9.4c0-0.1,0.1-0.3,0.3-0.3h5.6c0.2,0,0.3,0.1,0.3,0.3v0.4
		c0,0.1-0.1,0.3-0.3,0.3h-4.8v3.5h4.1c0.1,0,0.3,0.1,0.3,0.3V67c0,0.2-0.1,0.3-0.3,0.3h-4.1v3.6h4.8c0.2,0,0.3,0.1,0.3,0.3v0.4
		C144.8,71.7,144.7,71.8,144.5,71.8"/>
	<path fill="#B6A9D3" d="M149.5,62.8v3.5h2.3c1.1,0,1.7-0.8,1.7-1.8c0-1-0.6-1.7-1.7-1.7H149.5 M149.5,67.3v3.6h2.6
		c1,0,1.8-0.8,1.8-1.8c0-1-0.9-1.8-2-1.8H149.5 M152,71.8h-3.2c-0.2,0-0.3-0.1-0.3-0.3v-9.4c0-0.1,0.1-0.3,0.3-0.3h3.1
		c1.7,0,2.9,1.1,2.9,2.6c0,1.1-0.7,1.9-1.4,2.3c0.8,0.3,1.7,1,1.7,2.3C155.1,70.7,153.8,71.8,152,71.8"/>
	<path fill="#B6A9D3" d="M162.4,72c-2.2,0-3.8-1.7-3.8-3.8v-6c0-0.1,0.1-0.3,0.3-0.3h0.5c0.2,0,0.3,0.1,0.3,0.3v5.9
		c0,1.6,1,2.9,2.7,2.9c1.7,0,2.7-1.2,2.7-2.9v-6c0-0.1,0.1-0.3,0.3-0.3h0.5c0.1,0,0.3,0.1,0.3,0.3v6C166.2,70.3,164.7,72,162.4,72"
		/>
	<path fill="#B6A9D3" d="M172.6,71.8h-0.5c-0.1,0-0.3-0.1-0.3-0.3v-8.7h-2.5c-0.2,0-0.3-0.1-0.3-0.3v-0.4c0-0.1,0.1-0.3,0.3-0.3h6
		c0.2,0,0.3,0.1,0.3,0.3v0.4c0,0.1-0.1,0.3-0.3,0.3h-2.5v8.7C172.9,71.7,172.8,71.8,172.6,71.8"/>
	<path fill="#B6A9D3" d="M184,71.8h-0.6c-0.2,0-0.3-0.1-0.3-0.3v-9.4c0-0.1,0.1-0.3,0.3-0.3h5.6c0.2,0,0.3,0.1,0.3,0.3v0.4
		c0,0.1-0.1,0.3-0.3,0.3h-4.8v3.9h4.1c0.1,0,0.3,0.1,0.3,0.3v0.4c0,0.1-0.1,0.3-0.3,0.3h-4.1v3.9C184.3,71.7,184.2,71.8,184,71.8"/>
	<path fill="#B6A9D3" d="M193.9,62.9V67h2.8c1.1,0,2.1-0.9,2.1-2.1c0-1.1-1-2-2.1-2H193.9 M199.4,71.8h-0.7c-0.1,0-0.2-0.1-0.2-0.1
		l-1.9-3.8h-2.7v3.6c0,0.1-0.1,0.3-0.3,0.3H193c-0.2,0-0.3-0.1-0.3-0.3v-9.4c0-0.1,0.1-0.3,0.3-0.3h3.7c1.7,0,3.1,1.3,3.1,3
		c0,1.3-0.9,2.4-2.1,2.9l1.9,3.6C199.7,71.6,199.6,71.8,199.4,71.8"/>
	<path fill="#B6A9D3" d="M206.8,63.8l-2.1,4.7h4.3c-0.7-1.6-1.4-3.1-2.1-4.7H206.8 M211.2,71.8h-0.6c-0.1,0-0.2-0.1-0.2-0.2
		l-1.1-2.3h-5.1l-1,2.3c0,0.1-0.1,0.2-0.2,0.2h-0.6c-0.2,0-0.3-0.2-0.2-0.4l4.3-9.6c0-0.1,0.1-0.2,0.2-0.2h0.1
		c0.1,0,0.2,0.1,0.2,0.2l4.3,9.6C211.5,71.6,211.4,71.8,211.2,71.8"/>
	<path fill="#B6A9D3" d="M218.8,72c-2.8,0-5.1-2.3-5.1-5.1c0-2.8,2.3-5.1,5.1-5.1c1.4,0,2.5,0.5,3.4,1.3c0.1,0.1,0.1,0.3,0,0.4
		c-0.1,0.1-0.3,0.3-0.4,0.4c-0.1,0.1-0.1,0.1-0.2,0.1c-0.1,0-0.1,0-0.2-0.1c-0.7-0.6-1.8-1.1-2.7-1.1c-2.2,0-4,1.9-4,4.1
		c0,2.2,1.7,4.1,4,4.1c1.6,0,2.6-0.6,2.6-0.6v-2h-1.6c-0.2,0-0.3-0.1-0.3-0.3v-0.5c0-0.2,0.1-0.3,0.3-0.3h2.5c0.1,0,0.3,0.1,0.3,0.3
		v3.3c0,0.1-0.1,0.2-0.1,0.2C222.3,71,220.9,72,218.8,72"/>
	<path fill="#B6A9D3" d="M227.3,62.9V67h2.8c1.1,0,2.1-0.9,2.1-2.1c0-1.1-1-2-2.1-2H227.3 M232.9,71.8h-0.7c-0.1,0-0.2-0.1-0.2-0.1
		l-1.9-3.8h-2.7v3.6c0,0.1-0.1,0.3-0.3,0.3h-0.6c-0.2,0-0.3-0.1-0.3-0.3v-9.4c0-0.1,0.1-0.3,0.3-0.3h3.7c1.7,0,3.1,1.3,3.1,3
		c0,1.3-0.9,2.4-2.1,2.9l2,3.6C233.2,71.6,233.1,71.8,232.9,71.8"/>
	<path fill="#B6A9D3" d="M240.3,63.8l-2.1,4.7h4.3c-0.7-1.6-1.4-3.1-2.1-4.7H240.3 M244.7,71.8h-0.6c-0.1,0-0.2-0.1-0.2-0.2
		l-1.1-2.3h-5.1l-1,2.3c0,0.1-0.1,0.2-0.2,0.2h-0.6c-0.2,0-0.3-0.2-0.2-0.4l4.3-9.6c0-0.1,0.1-0.2,0.2-0.2h0.1
		c0.1,0,0.2,0.1,0.2,0.2l4.3,9.6C245,71.6,244.9,71.8,244.7,71.8"/>
	<path fill="#B6A9D3" d="M255.8,72h-0.3l-6.5-8.2h0v7.7c0,0.1-0.1,0.3-0.3,0.3h-0.5c-0.1,0-0.3-0.1-0.3-0.3V62
		c0-0.1,0.1-0.3,0.3-0.3h0.4l6.4,8h0v-7.6c0-0.1,0.1-0.3,0.3-0.3h0.5c0.1,0,0.3,0.1,0.3,0.3v9.6C256,71.9,255.9,72,255.8,72"/>
	<path fill="#B6A9D3" d="M264.8,72c-2.8,0-5.1-2.3-5.1-5.1c0-2.8,2.3-5.1,5.1-5.1c1.4,0,2.5,0.5,3.4,1.3c0.1,0.1,0.1,0.3,0,0.4
		l-0.4,0.4c-0.1,0.1-0.1,0.1-0.2,0.1c-0.1,0-0.1,0-0.2-0.1c-0.7-0.6-1.8-1.1-2.7-1.1c-2.3,0-4,1.9-4,4.1c0,2.2,1.7,4.1,4,4.1
		c1.2,0,2-0.5,2.7-1.1c0.1-0.1,0.1-0.1,0.2-0.1c0.1,0,0.1,0,0.1,0l0.4,0.4c0.1,0.1,0.1,0.3,0,0.4C267.3,71.5,266,72,264.8,72"/>
	<path fill="#B6A9D3" d="M277.7,71.8h-5.6c-0.2,0-0.3-0.1-0.3-0.3v-9.4c0-0.1,0.1-0.3,0.3-0.3h5.6c0.2,0,0.3,0.1,0.3,0.3v0.4
		c0,0.1-0.1,0.3-0.3,0.3h-4.8v3.5h4.1c0.1,0,0.3,0.1,0.3,0.3V67c0,0.2-0.1,0.3-0.3,0.3h-4.1v3.6h4.8c0.2,0,0.3,0.1,0.3,0.3v0.4
		C278,71.7,277.9,71.8,277.7,71.8"/>
</g>
</svg>
